<?xml version="1.0" encoding="UTF-8" standalone="no"?>
<!-- Generator: Adobe Illustrator 16.0.0, SVG Export Plug-In . SVG Version: 6.00 Build 0)  -->

<svg
   xmlns:dc="http://purl.org/dc/elements/1.1/"
   xmlns:cc="http://creativecommons.org/ns#"
   xmlns:rdf="http://www.w3.org/1999/02/22-rdf-syntax-ns#"
   xmlns:svg="http://www.w3.org/2000/svg"
   xmlns="http://www.w3.org/2000/svg"
   xmlns:sodipodi="http://sodipodi.sourceforge.net/DTD/sodipodi-0.dtd"
   xmlns:inkscape="http://www.inkscape.org/namespaces/inkscape"
   version="1.1"
   x="0px"
   y="0px"
   width="1920"
   height="1080"
   viewBox="0 0 1920 1080"
   enable-background="new 0 0 2000 1000"
   xml:space="preserve"
   id="svg2"
   inkscape:version="0.91 r13725"
   sodipodi:docname="handover.svg"><metadata
     id="metadata103"><rdf:RDF><cc:Work
         rdf:about=""><dc:format>image/svg+xml</dc:format><dc:type
           rdf:resource="http://purl.org/dc/dcmitype/StillImage" /><dc:title></dc:title></cc:Work></rdf:RDF></metadata><defs
     id="defs101" /><sodipodi:namedview
     pagecolor="#ffffff"
     bordercolor="#666666"
     borderopacity="1"
     objecttolerance="10"
     gridtolerance="10"
     guidetolerance="10"
     inkscape:pageopacity="0"
     inkscape:pageshadow="2"
     inkscape:window-width="1600"
     inkscape:window-height="876"
     id="namedview99"
     showgrid="false"
     inkscape:zoom="0.292"
     inkscape:cx="975.49574"
     inkscape:cy="688.48383"
     inkscape:window-x="0"
     inkscape:window-y="24"
     inkscape:window-maximized="1"
     inkscape:current-layer="layer2"
     fit-margin-top="0"
     fit-margin-left="0"
     fit-margin-right="0"
     fit-margin-bottom="0" /><g
     style="display:inline;opacity:0.4"
     display="none"
     inkscape:groupmode="layer"
     inkscape:label="bg"
     id="layer2"
     transform="matrix(2.9343874,0,0,2.9343874,-1918.196,-1168.5332)"><g
       style="display:inline"
       display="inline"
       id="g3781"
       transform="matrix(0.32762319,0,0,0.32945578,650.51303,409.79888)"><rect
         style="fill:#275b4f"
         height="1117.144"
         width="1997.1429"
         y="-35.144001"
         x="9.7139997"
         id="rect3850" /><radialGradient
         gradientUnits="userSpaceOnUse"
         gradientTransform="matrix(1.2932,0.0152,0.0097,-0.8252,1578.6372,1955.8984)"
         r="989.987"
         cy="1739.4785"
         cx="-464.0293"
         id="rect3840_1_"><stop
           id="stop54"
           style="stop-color:#298774"
           offset="0" /><stop
           id="stop56"
           style="stop-color:#044437;stop-opacity:0"
           offset="1" /></radialGradient><rect
         style="fill:url(#rect3840_1_)"
         height="1097.1429"
         width="1980"
         y="-23.715"
         x="18.285999"
         id="rect3840" /></g></g><g
     id="Layer_3"
     transform="matrix(2.7360022,0,0,2.7360022,-1724.6979,-1067.6751)" /><g
     id="Layer_2"
     transform="matrix(2.7360022,0,0,2.7360022,-1724.6979,-1067.6751)" /><g
     inkscape:groupmode="layer"
     id="layer3"
     inkscape:label="protestor hand"
     style="display:inline"
     transform="translate(-3.8702918e-5,80.000048)"><g
       transform="translate(-2.3893188e-4,3e-4)"
       id="g4205-4"><g
         style="display:inline"
         id="g13343-4"
         transform="matrix(-1.1582764,0,0,1.1582764,2603.605,-985.19178)"><path
           sodipodi:nodetypes="ccccccc"
           inkscape:connector-curvature="0"
           id="path13345-1"
           d="m 1927.7465,1664.9181 c -7.2478,-13.0815 -9.5459,-103.9447 -11.1369,-110.839 -2.4749,-10.253 -16.0867,-11.1369 -21.9203,-13.435 -9.5459,6.7175 -2.8285,19.4455 -5.8337,19.9758 -12.7279,2.1213 -38.5373,15.2028 -38.5373,19.799 42.3701,36.1075 58.5391,108.5868 73.5391,118.0868 -0.5303,-15.2028 6.0104,-24.3952 3.8891,-33.5876 z"
           style="fill:#b48858;fill-opacity:1;stroke:none" /><path
           sodipodi:nodetypes="ccccccccc"
           inkscape:connector-curvature="0"
           id="path13347-8"
           d="m 1886.4719,1535.8885 c -12.1667,1.4167 -19.3243,8.3333 -35.75,23.75 0,0 -1,21.5 -7.5,23.75 0,0 -0.5,24.75 -6,26.75 0,0 -5.75,20.75 3.75,50.75 3.25,13.75 -8,56 28.75,73.5 0,0 54,-66.75 39,-64.25 l -14,-129.25 c 0,0 0.5,-1.75 -8.25,-5 z"
           style="fill:#b48858;fill-opacity:1;stroke:none" /><path
           sodipodi:nodetypes="cccccc"
           inkscape:connector-curvature="0"
           id="path13349-2"
           d="m 1923.9004,1646.6369 c 7.4246,55.8615 127.2363,214.5033 143.8533,226.8777 l -44.5049,127.7363 c -24.7487,-27.5772 -131.3361,-237.0235 -149.7209,-260.0045 -3.8891,-3.5355 -12.5528,-11.2671 -16.8028,-15.7671 -1.4497,-64.4864 71.0643,-43.1335 67.1753,-78.8424 z"
           style="fill:#b48858;fill-opacity:1;stroke:none" /><path
           style="fill:#b48858;fill-opacity:1;stroke:none"
           d="m 1923.9004,1646.6369 c 7.4246,55.8615 127.2363,214.5033 143.8533,226.8777 l -7.7353,22.7309 c -51.9723,-35.3554 -93.8595,-135.9072 -112.2443,-158.8882 -3.8891,-3.5355 -24.5736,-32.4803 -28.8236,-36.9803 -3.9246,-36.5557 1.4143,-37.8302 4.9499,-53.7401 z"
           id="path13353-6"
           inkscape:connector-curvature="0"
           sodipodi:nodetypes="cccccc" /></g><path
         inkscape:connector-curvature="0"
         id="path13357-1"
         d="m 449.52219,1040.5804 -102.6008,-72.96048 -136.0408,186.20118 66.1204,155.801 z"
         style="display:inline;fill:#986393;fill-opacity:1;stroke:none" /><path
         sodipodi:nodetypes="ccccc"
         style="display:inline;fill:#986393;fill-opacity:1;stroke:none"
         d="m 422.30409,1090.048 -110.5686,-78.6265 c 0,0 -117.4958,156.1407 -146.6054,200.6612 -83.90411,140.411 110.0008,235.705 110.0008,235.705 44.5205,-29.1096 135.1869,-338.9041 147.1732,-357.7397 z"
         id="path13359-6"
         inkscape:connector-curvature="0" /><g
         style="display:inline"
         id="g13363-5"
         transform="matrix(-1.1582764,0,0,1.1582764,2603.605,-985.19178)"><path
           sodipodi:nodetypes="ccccccccccc"
           inkscape:connector-curvature="0"
           id="path13365-4"
           d="m 1761.9719,1596.7635 c -10.5,5.5 -1.625,17 2.875,17 5,1.25 14.875,0.125 17.875,0.875 4,3.5 15,5.5 19,4.5 3.75,5 16.25,11.5 19,11.75 0,4.5 20.5459,28.8744 20.5459,28.8744 l 8.7041,-44.1244 -20,-15.25 -17.75,-8.75 -20.75,-2.75 z"
           style="fill:#b48858;fill-opacity:1;stroke:none" /><path
           style="fill:#94724d;fill-opacity:1;stroke:none"
           d="m 1764.8469,1613.7635 c 5,1.25 14.875,0.125 17.875,0.875 4,3.5 15,5.5 19,4.5 3.75,5 16.25,11.5 19,11.75 0,4.5 20.8995,28.8744 20.8995,28.8744 l -7.2058,-17.7847 -9.9238,-13.4822 c 0,0 -18.9874,-10.6946 -20.4016,-14.4069 0,0 -11.7344,2.1997 -20.75,-2.75 -8.3731,2.6211 -23.3919,2.4306 -18.4933,2.4244 z"
           id="path13367-5"
           inkscape:connector-curvature="0"
           sodipodi:nodetypes="cccccccccc" /></g><g
         style="display:inline"
         id="g13371-4"
         transform="matrix(-1.1582764,0,0,1.1582764,2603.605,-985.19178)"><path
           sodipodi:nodetypes="ccccccccccc"
           inkscape:connector-curvature="0"
           id="path13373-2"
           d="m 1760.5158,1575.2923 c -5.3033,1.7678 -9.7228,8.3085 -9.7228,8.3085 -2.1213,6.8943 3.8008,15.7332 14.1422,14.1422 3.5355,-0.1768 18.9151,-6.9827 22.6274,-7.4246 3.8007,2.3865 18.8267,2.5632 21.0364,2.1213 4.5962,5.4801 14.1421,9.4575 17.3241,9.0156 2.8284,5.1265 14.6725,11.3137 14.6725,11.3137 8.2876,-6.8858 11.0191,-16.3224 9.3692,-25.2791 -2.9168,-4.8614 -29.7869,-17.5008 -32.8805,-17.6776 -4.773,-0.5303 -31.9966,-0.8839 -34.1179,0 z"
           style="fill:#b48858;fill-opacity:1;stroke:none" /><path
           style="fill:#94724d;fill-opacity:1;stroke:none"
           d="m 1788.093,1586.0757 c -16.6803,11.9014 -36.1858,11.5279 -26.8701,11.4021 9.5459,0.6187 22.6274,-6.7175 26.3397,-7.1594 3.8007,2.3865 18.8267,2.5632 21.0364,2.1213 4.5962,5.4801 14.1421,9.4575 17.3241,9.0156 2.8284,5.1265 14.6725,11.3137 14.6725,11.3137 -3.2029,-4.9413 -1.7088,-3.4177 -6.5407,-9.8995 -2.9168,-4.8614 -3.2704,-4.7729 -6.364,-4.9497 -4.773,-0.5303 -15.5564,-9.3692 -18.208,-10.7834 z"
           id="path13375-9"
           inkscape:connector-curvature="0"
           sodipodi:nodetypes="cccccccccc" /></g><g
         style="display:inline"
         id="g13379-5"
         transform="matrix(-1.1582764,0,0,1.1582764,2603.605,-985.19178)"><path
           sodipodi:nodetypes="ccccccccccc"
           inkscape:connector-curvature="0"
           id="path13381-8"
           d="m 1758.9719,1552.6385 c -1,1 -12.5,5 -12.5,5 -14.625,6.625 -2.875,17.25 0.5,17.5 9.875,2.25 27.5,-1.25 27.5,-1.25 l 15.5,0 c 0,0 24,-1 27.25,-2.5 1.75,2.875 22.375,16.5 28,16.5 8,-0.75 23,-23.25 18.5,-30 0,0 -25.25,-15.5 -33.25,-17 -9.75,-3.125 -51.125,1.125 -56.375,2.25 -6.375,1.75 -13.5,8.75 -15.125,9.5 z"
           style="fill:#b48858;fill-opacity:1;stroke:none" /><path
           style="fill:#94724d;fill-opacity:1;stroke:none"
           d="m 1773.2219,1567.8885 c -1,1 -6,4.125 -6,4.125 -14.125,4.375 -23.625,2.875 -20.25,3.125 9.875,2.25 27.5,-1.25 27.5,-1.25 l 15.5,0 c 0,0 24,-1 27.25,-2.5 1.75,2.875 22.375,16.5 28,16.5 -0.8166,-9.3808 8.2574,-10.8172 -4.75,-12 -9.75,-3.125 -20.875,-12.375 -26.125,-11.25 -6.375,1.75 -36.125,3.875 -41.125,3.25 z"
           id="path13385-1"
           inkscape:connector-curvature="0"
           sodipodi:nodetypes="cccccccccc" /></g><g
         style="display:inline"
         id="g13389-3"
         transform="matrix(-1.1582764,0,0,1.1582764,2603.605,-985.19178)"><path
           sodipodi:nodetypes="ccccccccc"
           inkscape:connector-curvature="0"
           id="path13391-3"
           d="m 1904.7219,1543.7635 c -3,-3.5 -63.375,-33.75 -70.875,-36.5 -4.375,-1 -26.125,0.5 -48,-2.125 -8.25,-0.5 -18.5,2.375 -25.875,2.875 -13.75,2.25 -10.375,18.5 -4,19.625 9.75,7.75 41.25,4.5 41.25,4.5 0.875,1.375 28.75,9.375 31.25,8.75 0.625,1 22.875,14.5 26,13.75 z"
           style="fill:#b48858;fill-opacity:1;stroke:none" /><path
           style="fill:#94724d;fill-opacity:1;stroke:none"
           d="m 1848.6837,1546.9455 c -3,-3.5 -6.6297,-5.8193 -14.1297,-8.5693 -4.375,-1 -12.3364,-7.1014 -34.2114,-9.7264 -8.25,-0.5 -21.3284,2.0214 -26.5821,0.9305 -9.5074,-1.9927 -24.1636,-3.0668 -17.7886,-1.9418 9.75,7.75 41.25,4.5 41.25,4.5 0.875,1.375 28.75,9.375 31.25,8.75 0.625,1 19.875,13.25 23,12.5 z"
           id="path13395-1"
           inkscape:connector-curvature="0"
           sodipodi:nodetypes="ccccccccc" /></g><path
         sodipodi:nodetypes="ccccc"
         style="display:inline;fill:#986393;fill-opacity:1;stroke:none"
         d="m 443.46189,1058.9748 c -1.3913,-1.6053 -5.9655,1.2929 -5.9655,1.2929 l -2.669,2.9463 c 0,0 -1.3414,5.3181 1.1201,6.9234 z"
         id="path4453-0"
         inkscape:connector-curvature="0" /></g></g><g
     inkscape:groupmode="layer"
     id="layer4"
     inkscape:label="foi request"
     style="display:inline"
     transform="translate(-3.8702918e-5,80.000048)"><g
       id="g4455-2"
       transform="translate(94.441907,-101.7076)"><path
         transform="matrix(3.2698636,0,0,3.2698636,-2537.7184,-1049.9329)"
         style="fill:#ffffff"
         d="M 1065.9059,486.72382 925.444,484.14449 903.499,635.501 l 165,8 z"
         id="polygon63-7"
         inkscape:connector-curvature="0"
         sodipodi:nodetypes="ccccc" /><path
         d="m 607.36253,687.45135 c -3.80722,-82.84272 199.82413,-143.07489 215.40108,31.89536 3.13527,41.24394 -25.36814,105.9675 -99.89492,110.03193 -2.75974,23.04927 -7.48136,54.41708 -6.89934,59.65539 l -52.44536,-4.0677 6.89941,-103.03995 c 0,0 102.62665,14.41302 100.6443,-57.72252 7.17825,-58.77582 -83.7376,-108.3312 -122.72569,-14.13273 -1.66436,3.92383 -40.97948,-22.61978 -40.97948,-22.61978 z"
         id="path93-6"
         inkscape:connector-curvature="0"
         style="fill:#0b395e"
         sodipodi:nodetypes="ccccccccc" /><path
         d="m 698.917,920.4934 c -6.89615,-4.38816 -40.80464,-11.74535 -46.10509,20.68515 -2.33141,14.27623 4.52222,27.98022 26.0085,32.62997 9.69187,2.09925 25.55399,-0.11444 32.17545,-15.79671 6.62146,-15.68226 0.69649,-29.38954 -12.07886,-37.51841 z"
         id="path95-1"
         inkscape:connector-curvature="0"
         style="fill:#0b395e" /></g></g><g
     inkscape:groupmode="layer"
     id="layer1"
     inkscape:label="thumb"
     style="display:inline"
     transform="translate(-3.8702918e-5,80.000048)"><g
       style="display:inline"
       id="g13329"
       transform="matrix(-1,0,0,1,1408.2757,-9.2315618)"><g
         style="display:inline"
         id="g13331"
         transform="matrix(1.1582764,0,0,1.1582764,-1185.8784,-981.3396)"><path
           sodipodi:nodetypes="cccccccc"
           inkscape:connector-curvature="0"
           id="path13333"
           d="m 1856.3287,1577.944 c -4.75,-0.75 -34.3375,-18.3493 -44.0728,-29.5343 -2.8284,-5.7426 -29.7695,-18.1451 -40.1764,-23.9129 -24.3952,-2.8284 -20.4204,20.9025 -17.2384,25.1451 14.5,11 21.6201,22.2843 31.4841,25.1201 6.5,3 34.6482,24.3952 35.0018,42.0728 0.3535,7.4247 11.6672,46.3156 31.4662,76.3676 107.4803,14.4957 28.9913,-105.0054 3.5355,-115.2584 z"
           style="display:inline;fill:#b48858;fill-opacity:1;stroke:none" /><path
           sodipodi:nodetypes="cccccccc"
           inkscape:connector-curvature="0"
           id="path13337"
           d="m 1827.2503,1614.9492 c 0.9788,-7.8245 -15.8241,-24.8306 -25.5594,-36.0156 -20.5695,-9.5732 -28.831,-19.987 -34.1114,-22.2193 -5.4779,-2.7913 -15.9204,-11.315 -12.7384,-7.0724 14.5,11 21.6201,22.2843 31.4841,25.1201 6.5,3 34.6482,24.3952 35.0018,42.0728 0.3535,7.4247 11.6672,46.3156 31.4662,76.3676 19.9803,14.4957 -27.0871,-41.5002 -25.5429,-78.2532 z"
           style="display:inline;fill:#664d31;fill-opacity:0.56621004;stroke:none" /></g><path
         style="display:inline;fill:#ebe1d6;fill-opacity:0.29223747;stroke:none"
         d="m 864.96221,818.20318 c 1.30306,-6.80488 11.29319,-16.21587 13.32018,-16.36066 1.63502,-0.52493 0.71662,-2.6806 0,-3.90918 -2.25957,-3.39004 -15.78152,-11.87233 -15.78152,-11.87233 -11.00362,-2.60612 -20.41462,11.14841 -15.63673,22.00725 1.01349,0.86871 11.00363,8.83186 13.89932,9.84535 0,0 4.27114,1.66502 4.19875,0.28957 z"
         id="path13339"
         inkscape:connector-curvature="0"
         sodipodi:nodetypes="ccccccc" /></g></g><g
     inkscape:groupmode="layer"
     id="layer5"
     inkscape:label="binder"
     style="display:inline"
     transform="translate(-3.8702918e-5,80.000048)"><g
       id="g4739-4"
       transform="translate(-676.84785,-212.32867)"><polygon
         style="fill:#55736c;fill-opacity:1"
         id="polygon3129-4"
         points="1369,625 1202,634 1208,485 1335,484 1373,597 "
         transform="matrix(2.5820591,0,0,2.5820591,-1577.018,-1001.1948)" /><polygon
         transform="matrix(2.5820591,0,0,2.5820591,-1569.9786,-997.67512)"
         points="1201,491 1192,624 1356,615 1323,491 "
         id="polygon61-3"
         style="fill:#ffffff" /><path
         sodipodi:nodetypes="ccccc"
         inkscape:connector-curvature="0"
         id="polygon65-0"
         d="m 1875.1951,208.14653 92.9541,335.66771 -426.0397,49.05911 18.0743,-371.47011 z"
         style="fill:#5e7f77" /></g></g><g
     inkscape:groupmode="layer"
     id="layer6"
     inkscape:label="official hand"
     style="display:inline"
     transform="translate(-3.8702918e-5,80.000048)"><path
       style="fill:#e2c6af;fill-opacity:1;stroke:none"
       d="m 1433.6001,-5.7357269 c 3.8984,15.6637854 68.9234,89.1211499 72.7383,95.7368579 5.5875,9.918741 -4.5134,20.629889 -7.4305,26.736269 -12.4811,1.71637 -16.5384,-13.27804 -19.3021,-11.48623 -11.6133,7.68733 -41.6215,16.34083 -45.0025,12.7106 6.9043,-59.686912 -33.6415,-128.827649 -28.7824,-147.365258 10.7645,12.397784 22.6927,14.846835 27.7792,23.6677611 z"
       id="path4496-5"
       inkscape:connector-curvature="0"
       sodipodi:nodetypes="ccccccc" /><path
       style="fill:#e2c6af;fill-opacity:1;stroke:none"
       d="M 1444.0102,11.532627 C 1408.782,-38.050318 1373.517,-252.80575 1377.539,-274.80315 l -71.5,-67.83876 c 0.7388,39.98686 26.2052,284.828097 28.5894,316.503361 -0.471,5.653328 19.4895,47.497505 19.443,54.178111 46.292,51.999974 66.7426,-47.571838 89.9388,-16.506935 z"
       id="path4500-0"
       inkscape:connector-curvature="0"
       sodipodi:nodetypes="cccccc" /><g
       style="display:inline"
       id="g4512-5"
       transform="matrix(0.78983409,-0.73561234,-0.73561234,-0.78983409,1135.7345,2727.3475)"><path
         sodipodi:nodetypes="ccccccccccc"
         inkscape:connector-curvature="0"
         id="path4514-5"
         d="m 1761.9719,1596.7635 c -10.5,5.5 -1.625,17 2.875,17 5,1.25 14.875,0.125 17.875,0.875 4,3.5 15,5.5 19,4.5 3.75,5 16.25,11.5 19,11.75 0,4.5 20.5459,28.8744 20.5459,28.8744 l 8.7041,-44.1244 -20,-15.25 -17.75,-8.75 -20.75,-2.75 z"
         style="fill:#e2c6af;fill-opacity:1;stroke:none" /><path
         style="fill:#dcba9e;fill-opacity:1;stroke:none"
         d="m 1764.8469,1613.7635 c 5,1.25 14.875,0.125 17.875,0.875 4,3.5 15,5.5 19,4.5 3.75,5 16.25,11.5 19,11.75 0,4.5 20.8995,28.8744 20.8995,28.8744 l -7.2058,-17.7847 -9.9238,-13.4822 c 0,0 -18.9874,-10.6946 -20.4016,-14.4069 0,0 -11.7344,2.1997 -20.75,-2.75 -8.3731,2.6211 -23.3919,2.4306 -18.4933,2.4244 z"
         id="path4516-3"
         inkscape:connector-curvature="0"
         sodipodi:nodetypes="cccccccccc" /></g><g
       style="display:inline"
       id="g4518-7"
       transform="matrix(0.78983409,-0.73561234,-0.73561234,-0.78983409,1135.7345,2727.3475)"><path
         sodipodi:nodetypes="ccccccccccc"
         inkscape:connector-curvature="0"
         id="path4520-9"
         d="m 1760.5158,1575.2923 c -5.3033,1.7678 -9.7228,8.3085 -9.7228,8.3085 -2.1213,6.8943 3.8008,15.7332 14.1422,14.1422 3.5355,-0.1768 18.9151,-6.9827 22.6274,-7.4246 3.8007,2.3865 18.8267,2.5632 21.0364,2.1213 4.5962,5.4801 14.1421,9.4575 17.3241,9.0156 2.8284,5.1265 14.6725,11.3137 14.6725,11.3137 8.2876,-6.8858 11.0191,-16.3224 9.3692,-25.2791 -2.9168,-4.8614 -29.7869,-17.5008 -32.8805,-17.6776 -4.773,-0.5303 -31.9966,-0.8839 -34.1179,0 z"
         style="fill:#e2c6af;fill-opacity:1;stroke:none" /><path
         style="fill:#d2a784;fill-opacity:1;stroke:none"
         d="m 1788.093,1586.0757 c -16.6803,11.9014 -36.1858,11.5279 -26.8701,11.4021 9.5459,0.6187 22.6274,-6.7175 26.3397,-7.1594 3.8007,2.3865 18.8267,2.5632 21.0364,2.1213 4.5962,5.4801 14.1421,9.4575 17.3241,9.0156 2.8284,5.1265 14.6725,11.3137 14.6725,11.3137 -3.2029,-4.9413 -1.7088,-3.4177 -6.5407,-9.8995 -2.9168,-4.8614 -3.2704,-4.7729 -6.364,-4.9497 -4.773,-0.5303 -15.5564,-9.3692 -18.208,-10.7834 z"
         id="path4522-9"
         inkscape:connector-curvature="0"
         sodipodi:nodetypes="cccccccccc" /></g><g
       style="display:inline"
       id="g4524-9"
       transform="matrix(0.78983409,-0.73561234,-0.73561234,-0.78983409,1135.7345,2727.3475)"><path
         sodipodi:nodetypes="ccccccccccc"
         inkscape:connector-curvature="0"
         id="path4526-0"
         d="m 1758.9719,1552.6385 c -1,1 -12.5,5 -12.5,5 -14.625,6.625 -2.875,17.25 0.5,17.5 9.875,2.25 27.5,-1.25 27.5,-1.25 l 15.5,0 c 0,0 24,-1 27.25,-2.5 1.75,2.875 22.375,16.5 28,16.5 8,-0.75 23,-23.25 18.5,-30 0,0 -25.25,-15.5 -33.25,-17 -9.75,-3.125 -51.125,1.125 -56.375,2.25 -6.375,1.75 -13.5,8.75 -15.125,9.5 z"
         style="fill:#e2c6af;fill-opacity:1;stroke:none" /><path
         style="fill:#d2a784;fill-opacity:1;stroke:none"
         d="m 1773.2219,1567.8885 c -1,1 -6,4.125 -6,4.125 -14.125,4.375 -23.625,2.875 -20.25,3.125 9.875,2.25 27.5,-1.25 27.5,-1.25 l 15.5,0 c 0,0 24,-1 27.25,-2.5 1.75,2.875 22.375,16.5 28,16.5 -0.8166,-9.3808 8.2574,-10.8172 -4.75,-12 -9.75,-3.125 -20.875,-12.375 -26.125,-11.25 -6.375,1.75 -36.125,3.875 -41.125,3.25 z"
         id="path4530-4"
         inkscape:connector-curvature="0"
         sodipodi:nodetypes="cccccccccc" /></g><path
       style="fill:#e2c6af;fill-opacity:1;stroke:none"
       d="m 1504.5373,106.89349 c 0.2052,4.97126 -25.2288,73.27634 -29.1296,80.96547 -2.7199,4.00814 -21.0023,18.82295 -36.3489,36.98778 -6.1483,6.46373 -16.3589,11.73298 -22.5519,16.7632 -12.5152,8.33755 -21.8033,-6.97995 -17.5956,-12.55804 1.9999,-13.29343 29.2704,-33.89826 29.2704,-33.89826 -0.3204,-1.72969 15.8114,-28.55355 18.2456,-29.89894 -0.2418,-1.24959 7.4011,-28.27972 10.4211,-29.98614 -40.9122,-51.470137 47.6889,-28.37507 47.6889,-28.37507 z"
       id="path4534-4"
       inkscape:connector-curvature="0"
       sodipodi:nodetypes="ccccccccc" /><path
       sodipodi:nodetypes="ccccccccc"
       inkscape:connector-curvature="0"
       id="path4538-4"
       d="m 1457.9358,145.60263 c 0.2051,4.97125 -0.9557,9.47316 -4.8565,17.16231 -2.7199,4.00814 -4.5199,14.68373 -19.8665,32.84856 -6.1483,6.46373 -18.3329,14.09287 -21.6799,18.81918 -6.0434,8.56767 -16.8293,20.19731 -12.6216,14.61922 1.9999,-13.29343 29.2704,-33.89826 29.2704,-33.89826 -0.3204,-1.72969 15.8114,-28.55355 18.2456,-29.89894 -0.2418,-1.24959 5.9512,-25.08559 8.9711,-26.79201 z"
       style="fill:#d2a784;fill-opacity:1;stroke:none" /><path
       sodipodi:nodetypes="ccccc"
       inkscape:connector-curvature="0"
       id="path4508-7"
       d="m 1333.9665,15.701171 c 5.9931,-21.6181502 106.0577,-37.895393 109.9105,-22.6984751 2.7825,-7.7054799 -69.4742,-195.0528459 -69.4742,-195.0528459 l -47.3894,4.01653 c 0,0 1.388,198.96595604 6.9531,213.734791 z"
       style="display:inline;fill:#5e7f77;fill-opacity:1;stroke:none" /><path
       sodipodi:nodetypes="ccccc"
       style="display:inline;fill:#5e7f77;fill-opacity:1;stroke:none"
       d="m 1320.4592,-45.018039 114.9859,-15.234665 c 0,0 -46.53,-162.511696 -54.2592,-207.325376 -29.321,-136.73074 -67.3379,-57.46852 -67.3379,-57.46852 -10.8915,44.15181 3.1351,261.260795 6.6112,280.028561 z"
       id="path4510-7"
       inkscape:connector-curvature="0" /><path
       sodipodi:nodetypes="ccccc"
       style="display:inline;fill:#5e7f77;fill-opacity:1;stroke:none"
       d="m 1325.3278,-13.250378 c 1.8058,0.193635 2.9788,-4.284737 2.9788,-4.284737 l -0.047,-3.398371 c 0,0 -2.2595,-4.108653 -4.7348,-3.678721 z"
       id="path4552-6"
       inkscape:connector-curvature="0" /></g><g
     inkscape:groupmode="layer"
     id="layer7"
     inkscape:label="official thumb"
     style="display:inline"><path
       transform="matrix(0.78983409,-0.73561234,-0.73561234,-0.78983409,1135.7345,2807.3475)"
       sodipodi:nodetypes="cccccccc"
       inkscape:connector-curvature="0"
       id="path4544-2"
       d="m 1856.3287,1577.944 c -4.75,-0.75 -34.3375,-18.3493 -44.0728,-29.5343 -2.8284,-5.7426 -29.7695,-18.1451 -40.1764,-23.9129 -24.3952,-2.8284 -20.4204,20.9025 -17.2384,25.1451 14.5,11 21.6201,22.2843 31.4841,25.1201 6.5,3 34.6482,24.3952 35.0018,42.0728 0.3535,7.4247 11.6672,46.3156 31.4662,76.3676 107.4803,14.4957 28.9913,-105.0054 3.5355,-115.2584 z"
       style="display:inline;fill:#e2c6af;fill-opacity:1;stroke:none" /><path
       transform="matrix(0.78983409,-0.73561234,-0.73561234,-0.78983409,1135.7345,2807.3475)"
       sodipodi:nodetypes="cccccccc"
       inkscape:connector-curvature="0"
       id="path4548-1"
       d="m 1827.2503,1614.9492 c 0.9788,-7.8245 -15.8241,-24.8306 -25.5594,-36.0156 -20.5695,-9.5732 -28.831,-19.987 -34.1114,-22.2193 -5.4779,-2.7913 -15.9204,-11.315 -12.7384,-7.0724 14.5,11 21.6201,22.2843 31.4841,25.1201 6.5,3 34.6482,24.3952 35.0018,42.0728 0.3535,7.4247 11.6672,46.3156 31.4662,76.3676 19.9803,14.4957 -27.0871,-41.5002 -25.5429,-78.2532 z"
       style="display:inline;fill:#d2a784;fill-opacity:1;stroke:none" /><g
       transform="matrix(0.68190468,-0.63509223,-0.63509223,-0.68190468,1321.1494,1385.0253)"
       id="g4540-3"
       style="display:inline"><g
         transform="matrix(1.1582764,0,0,1.1582764,-1185.8784,-981.3396)"
         id="g4542-2"
         style="display:inline" /><path
         sodipodi:nodetypes="ccccccc"
         inkscape:connector-curvature="0"
         id="path4550-1"
         d="m 864.96221,818.20318 c 1.30306,-6.80488 11.29319,-16.21587 13.32018,-16.36066 1.63502,-0.52493 0.71662,-2.6806 0,-3.90918 -2.25957,-3.39004 -15.78152,-11.87233 -15.78152,-11.87233 -11.00362,-2.60612 -20.41462,11.14841 -15.63673,22.00725 1.01349,0.86871 11.00363,8.83186 13.89932,9.84535 0,0 4.27114,1.66502 4.19875,0.28957 z"
         style="display:inline;fill:#ebe1d6;fill-opacity:0.29223747;stroke:none" /></g></g></svg>